<?xml version="1.0" encoding="utf-8"?>
<!-- Generator: Adobe Illustrator 22.0.1, SVG Export Plug-In . SVG Version: 6.00 Build 0)  -->
<svg version="1.1" id="Layer_1" xmlns="http://www.w3.org/2000/svg" xmlns:xlink="http://www.w3.org/1999/xlink" x="0px" y="0px"
	 viewBox="0 0 512 512" style="enable-background:new 0 0 512 512;" xml:space="preserve">
<style type="text/css">
	.st0{fill:#36373F;}
	.st1{fill:#45A8A4;}
	.st2{opacity:0.47;fill:#25252A;}
	.st3{fill:#7AC8CC;}
</style>
<g>
	
		<image style="overflow:visible;opacity:0.35;" width="2184" height="2184" xlink:href="EFCDBCA.png"  transform="matrix(0.24 0 0 0.24 -8.5202 -4.0006)">
	</image>
	<g>
		<circle class="st0" cx="246.2" cy="246.2" r="246.2"/>
	</g>
</g>
<path class="st1" d="M195.2,133.3l171.3,142.3c20.5,17,14.9,49.9-10.1,59.1l-206.3,76c-25.3,9.3-51.3-12.4-46.5-39l39.3-219.4
	C147.2,128.1,176.2,117.5,195.2,133.3z"/>
<path class="st2" d="M475,337.2l-71.1-85.7l-222.3,92.3l91.8,147C365.3,480.8,442,420.1,475,337.2z"/>
<path class="st3" d="M236.2,71.4l171.3,142.3c20.5,17,14.9,49.9-10.1,59.1l-206.3,76c-25.3,9.3-51.3-12.4-46.5-39l39.3-219.4
	C188.2,66.2,217.2,55.6,236.2,71.4z"/>
</svg>
